Olist電商資料探索
…
ProductSell = merge(Order,Item) #一筆 是一個產品的銷售紀錄
ProductSell = merge(ProductSell,Product) #一筆 是一個產品的銷售紀錄
ProductSell = merge(Seller,ProductSell) #一筆是一個賣家的產品銷售紀錄

商品種類的實際需求數量

ProductSell %>% 
  group_by(product_category_name_english) %>% 
  summarise(
    n = n()
  ) %>% arrange(desc(n))

# A tibble: 71 x 2
   product_category_name_english     n
   <fct>                         <int>
 1 bed_bath_table                11823
 2 health_beauty                  9972
 3 sports_leisure                 8945
 4 furniture_decor                8744
 5 computers_accessories          8082
 6 housewares                     7355
 7 watches_gifts                  6201
 8 telephony                      4721
 9 garden_tools                   4574
10 auto                           4379
# ... with 61 more rows
…
